991006911159704113
991005242349704113
991002102369704113
991006532209704113
991002241019704113
991004550939704113
991001741179704113
991000820289704113
991010099749704113
991001259779704113
991003407019704113
991006086629704113
991000309069704113
991010184159704113
991000073319704113
991002753549704113
991004910289704113
991007433099704113
991000415149704113
991006082589704113
991002761479704113
991005384959704113
991000040289704113
991001938879704113
991001286889704113
991002247689704113
991002213219704113
991004875169704113
991000717209704113
991004810369704113
991007199479704113
991009902709704113
991001886449704113
991008712179704113
991001705269704113
991002995159704113
991003098609704113
991000678159704113
991006927869704113
991007671919704113
991009183269704113
991001347479704113
991005980329704113
991005585839704113
991010116639704113
991005153999704113
991001921629704113
991001566139704113
991003083599704113
991002021029704113
991000103719704113
991009925319704113
991002788949704113
991003286539704113
991001797219704113
991000528619704113
991001163849704113
991004355089704113
991006353079704113
991010025029704113
991009164919704113
991007784199704113
991010317529704113
991005271239704113
991003422879704113
991008776029704113
991000901869704113
991006840899704113
991001838199704113
991002880979704113
991000863309704113
991001818419704113
991000542539704113
991006560369704113
991002275439704113
991006730519704113
991002218289704113
991003630859704113
991000959459704113
991000051209704113
991006854269704113
991001579969704113
991001868059704113
991000706009704113
991003149809704113
991004903269704113
991004908839704113
991002338869704113
991003425119704113
991000196449704113
991001311589704113
991000450979704113
991000972309704113
991009981229704113
991001313929704113
991002949569704113
991002136739704113
991001807179704113
991002314729704113
991001884519704113
991003672109704113
991001418669704113
991001733929704113
991010201179704113
991002271079704113
991003649319704113
991003677099704113
991001043319704113
991008272569704113
991000173629704113
991004340009704113
991003111559704113
991002606109704113
991000759519704113
991009111909704113
991002771999704113
991003312169704113
991000509859704113
991007025689704113
991001803749704113
991007382379704113
991010191029704113
991007777429704113
991008477719704113
991006563459704113
991007840379704113
991000592339704113
991006671549704113
991008560189704113
991008678899704113
991000685249704113
991005469849704113
991004182059704113
991000527509704113
991003306839704113
991002859969704113
991010468849704113
991010117439704113
991004368509704113
991005331129704113
991003716039704113
991002169149704113
991000093219704113
991002177159704113
991002873919704113
991003035589704113
991000387449704113
991001175059704113
991001427759704113
991010484979704113
991010647059704113
991007096739704113
991004087969704113
991002872769704113
991005314309704113
991010669569704113
991003274079704113
991002003379704113
991001827359704113
991004694489704113
991010246809704113
991000498149704113
991000156279704113
991004321699704113
991008543339704113
991000108209704113
991000768959704113
991006962669704113
991004780189704113
991001570569704113
991002207779704113
991008560899704113
991006202869704113
991008713429704113
991000848419704113
991006449379704113
991002817059704113
991006067109704113
991003868639704113
991007220869704113
991000171009704113
991008602249704113
991000118109704113
991006753069704113
991001338379704113
991003081279704113
991010124429704113
991005311309704113
991002247279704113
991007538159704113
991002306159704113
991000823079704113
991003199509704113
991001498059704113
991000035439704113
991001317349704113
991006949349704113
991002266509704113
991008497979704113
991008278829704113
991004398729704113
991004480249704113
991002139649704113
991008737519704113
991004510919704113
991001026549704113
991005396319704113
991002219029704113
991002202439704113
991000672889704113
991002735719704113
991002938329704113
991000377659704113
991001790489704113
991002793429704113
991000420349704113
991006236419704113
991002617689704113
991001451359704113
991010376509704113
991005336449704113
991000019169704113
991003143529704113
991006912099704113
991002174519704113
991001597899704113
991009227659704113
991002053019704113
991000352999704113
991005780549704113
991003788429704113
991000617709704113
991000091239704113
991003762269704113
991004487469704113
991002665089704113
991008292329704113
991008599439704113
991007522589704113
991005478139704113
991000774959704113
991001256429704113
991010158079704113
991007519109704113
991007185829704113
991005006159704113
991006900509704113
991001619219704113
991000898319704113
991006103599704113
991002217829704113
991001770899704113
991002088809704113
991004953229704113
991000030029704113
991009950189704113
991002084089704113
991008077589704113
991007095829704113
991004591059704113
991004299959704113
991007818799704113
991002278159704113
991006811569704113
991002929639704113
991006315609704113
991010587159704113
991001549829704113
991002158829704113
991004568159704113
991000656739704113
991004199199704113
991003703999704113
991000875419704113
991004406499704113
991010268819704113
991002762349704113
991000217959704113
991001354819704113
991000085639704113
991001975189704113
991007892179704113
991005966679704113
991000468529704113
991006247369704113
991008536419704113
991001879839704113
991004849259704113
991001051879704113
991002185439704113
991001725029704113
991005595569704113
991007582649704113
991005770599704113

991001650369704113
991006001129704113
991002873279704113
991002135399704113
991007728749704113
991010434499704113
991003774349704113
991008612309704113
991007002789704113
991003918519704113
991010390759704113
991000095049704113
991004884579704113
991001816619704113
991000625159704113
991009929759704113
991003313649704113
991007560329704113
991002742529704113
991002224149704113
991006926169704113
991002305039704113
991002247479704113
991002601999704113
991002247359704113
991003157689704113
991007677189704113
991000054479704113
991003093149704113
991003057659704113
991001442319704113
991005332689704113
991009086769704113
991001806869704113
991001847739704113
991000672649704113
991006191209704113
991001298999704113
991000893969704113
991002314209704113
991001370989704113
991000633259704113
991010459029704113
991004770949704113
991001841899704113
991002712729704113
991001083849704113
991007585139704113
991001541669704113
991001821209704113
991004352849704113
991004810269704113
991006115479704113
991003624019704113
991004574539704113
991005391319704113
991001407959704113
991000044859704113
991003063189704113
991004695179704113
991001569579704113
991004013269704113
991006371939704113
991000991899704113
991003936789704113
991002223419704113
991007011179704113
991004580229704113
991000244989704113
991007924249704113
991004509709704113
991002216399704113
991003828799704113
991008485899704113
991000615319704113
991000229219704113
991005489789704113
991000333999704113
991005229569704113
991003834319704113
991000294379704113
991008246599704113
991005789489704113
991003152169704113
991008234599704113
991000200199704113
991002215079704113
991001018459704113
991002191979704113
991010003689704113
991003920489704113
991004185689704113
991004804289704113
991002326629704113
991001978719704113
991004881729704113
991008288419704113
991001613159704113
991004627919704113
991001261609704113
991005468719704113
991009943889704113
991001212079704113
991001807939704113
991006840419704113
991004687149704113
991005575459704113
991003024579704113
991000813839704113
991008631819704113
991001879559704113
991006457219704113
991004863169704113
991006890929704113
991002096789704113
991000087499704113
991002340049704113
991009158579704113
991010625629704113
991006912249704113
991000495389704113
991004687559704113
991000863449704113
991002618379704113
991010469069704113
991004559009704113
991004746569704113
991002282469704113
991000471439704113
991003240219704113
991008302129704113
991002794789704113
991000553979704113
991002279489704113
991000042939704113
991004131109704113
991003629559704113
991003172939704113
991004298769704113
991002188989704113
991000864839704113
991007863389704113
991002573449704113
991002338389704113
991008277619704113
991007765489704113
991002231959704113
991008558849704113
991008501219704113
991006252369704113
991009178389704113
991007047979704113
991004149769704113
991001797759704113
991001255689704113
991002923129704113
991002696939704113
991006130549704113
991001551019704113
991000869819704113
991006103699704113
991003300599704113
991005333889704113
991001107029704113
991000661259704113
991001869259704113
991001973659704113
991004420039704113
991000208059704113
991003035619704113
991000978659704113
991006374849704113
991004272799704113
991009992589704113
991004778909704113
991008686979704113
991002262309704113
991008231309704113
991002889749704113
991001089349704113
991009194419704113
991002840289704113
991002214849704113
991010051889704113
991008292439704113
991001900519704113
readyfortrial
991003244919704113
991001437549704113
991004150279704113
991010644009704113
991007368279704113
991001870669704113
991006420759704113
991001674369704113
991000221939704113
991001576219704113
991003736369704113
991004669139704113
991007634629704113
991003080309704113
991001292339704113
991000153789704113
991002675139704113
991001992859704113
991007058109704113
991000769429704113
991007764959704113
991005254349704113
991002932139704113
991002030469704113
991002258349704113
991008060509704113
991002084579704113
991004860679704113
991002971179704113
991009972639704113
991003069909704113
991009920599704113
991001102389704113
991006961469704113
991002817139704113
991001613009704113
991010079899704113
991008687009704113
991004680249704113
991001334479704113
991003184479704113
991006639809704113
991000174919704113
991007807109704113
991006084239704113
991000996709704113
991001054149704113
991010025739704113
991000790749704113
991005362889704113
991000161729704113
991008710109704113
991000993389704113
991006572499704113
991010664839704113
991001912529704113
991009969609704113
991010611039704113
991001214609704113
991010648759704113
991000304579704113
991001517839704113
991006072889704113
991007179759704113
991006800419704113
991000444339704113
991001391189704113
991002721219704113
991002958829704113
991007203549704113
991007810699704113
991003887329704113
991004670689704113
991000278149704113
991002186319704113
991008278269704113
991003347809704113
991001448469704113
991003111739704113
991008258169704113
991001562299704113
991006755839704113
991003157509704113
991005191599704113
991008608289704113
991010431489704113
991004535549704113
991002324829704113
991001544789704113
991001569659704113
991008673809704113
991007404529704113
991006054659704113
991006505689704113
991006984709704113
991000101639704113
991007779039704113
991003919059704113
991002288959704113
991000420399704113
991003287689704113
991000232959704113
991010397399704113
991007777579704113
991005335669704113
991010159859704113
991001849829704113
991008210509704113
991001539579704113
991007544009704113
991004827309704113
991000176379704113
991003418569704113
991008633599704113
991010555289704113
991000294589704113
991004690679704113
991010001129704113
991000337649704113
991004271919704113
991003168999704113
991009943169704113
991003253589704113
991004828379704113
991003044929704113
991003151779704113
991010385229704113
991000917419704113
991001028649704113
991000538509704113
991000056259704113
991003313069704113
991008541889704113
991003054129704113
991001329749704113
991003296549704113
991000668989704113
991004694449704113
991003867929704113
991002719599704113
991000808379704113
991000946719704113
991002285519704113
991002204659704113
991010632429704113
991000075699704113
991003655679704113
991003210609704113
991003324549704113
991000745169704113
991010325909704113
991006125369704113
991003768719704113
991007299419704113
991009144479704113
991001831749704113
991001824779704113
991003244769704113
991008631879704113
991003659449704113
991002674789704113
991000080419704113
991001880449704113
991000122499704113
991001188609704113
991000068179704113
991003333809704113
991000162059704113
991002092259704113
991001163359704113
991002257499704113
991000726519704113
991009227709704113
991002612969704113
991000590089704113
991003798679704113
991001565939704113
991007203469704113
991000847409704113
991010281719704113
991001709569704113
991005400349704113
991000105859704113
991004590649704113
991002214489704113
991002011599704113
991001099329704113
991006752919704113
991004139589704113
991003867759704113
991009989299704113
991001143509704113
991000992749704113
991006666249704113
991003038739704113
991003727219704113
991004321309704113
991000068109704113
991005992849704113
991008629659704113
991007563669704113
991009131259704113
991006537599704113
991006502419704113
991001041859704113
991004172119704113
991000490539704113
991001571199704113
991007576319704113
991000644619704113
991004301979704113
991002294459704113
991006665429704113
991001271679704113
991000474509704113
991000023789704113
991007129229704113
991002221399704113
991000231219704113
991002328529704113
991006773079704113
991010037159704113
991006632809704113
991000091489704113
991001120709704113
991006317269704113
991002899289704113
991003333729704113
991003287809704113
991000560609704113
991009200769704113
991001783619704113
991002674939704113
991007203409704113
991001319669704113
991002319999704113
991000672499704113
991003119469704113
991001118459704113
991001469729704113
991000199279704113
991006056949704113
991004917189704113
991006407159704113
991002220709704113
991002980349704113
991004349189704113
991006061009704113
991002215369704113
991001409029704113
991002210059704113
991001489149704113
991009083509704113
991003236479704113
991010565919704113
991003752049704113
991000742759704113
991010284299704113
991002202759704113
991004553069704113
991010484989704113
991002237389704113
991003053649704113
991010142669704113
991005564659704113
991006671639704113
991008779089704113
991006672079704113
991002923299704113
991010365379704113
991009920759704113
991006671739704113
991006579769704113
991004133999704113
991008069949704113
991010072039704113
991002859759704113
991000434919704113
991008723539704113
991009156949704113
991000999129704113
991000209659704113
991003074969704113
991010272229704113
991000777009704113
991008536909704113
991004140059704113
991001299779704113
991000786919704113
991001924479704113
991002045389704113
991001176589704113
991010305309704113
991000117499704113
991003711419704113
991002222279704113
991007078969704113
991003767429704113
991001405079704113
991000302299704113
991004923339704113
991000017799704113
991001754149704113
991002285299704113
991007136449704113
991001870789704113
991005243759704113
991000099499704113
991000134059704113
991007747679704113
991003081579704113
991002864789704113
991002006639704113
991006818199704113
991000948829704113
991002244629704113
991006054739704113
991006054779704113
991010590019704113
991001418269704113
991010529559704113
991000042379704113
991006522399704113
991000243969704113
991002653949704113
991003232839704113
991000314259704113
991008489109704113
991003278119704113
991005469379704113
991001066229704113
991010106719704113
991000357799704113
991000515359704113
991010413669704113
991007209309704113
991002082439704113
991001873719704113
991002269089704113
991002290749704113
991005556199704113
991002226109704113
991000832419704113
991002006789704113
991000633459704113
991000749459704113
991002943559704113
991002025239704113
991004651119704113
991000195099704113
991001093909704113
991002244349704113
991005813609704113
991000749529704113
991001369449704113
991000874129704113
991001346039704113
991002803909704113
991003624949704113
991000696519704113
991008264689704113
991009918189704113
991000155399704113
991005784879704113
991004205949704113
991004425319704113
991002031559704113
991003139129704113
991000526789704113
991000536669704113
991003800919704113
991003673859704113
991001064969704113
991003141059704113
991006616559704113
991002237709704113
991001773169704113
991004174829704113
991009165719704113
991002034049704113
991004204729704113
991002845759704113
991003668849704113
991010122339704113
991002219139704113
991003186129704113
991002189359704113
991007779629704113
991002879549704113
991000180719704113
991000961629704113
991000312619704113
991000023769704113
991001472239704113
991000695259704113
991003082309704113
991002244469704113
991000985179704113
991006247459704113
991010051949704113
991002296219704113
991001879769704113
991007154209704113
991000688039704113
991002184819704113
991002142149704113
991001393659704113
991001868439704113
991002289669704113
991001488239704113
991007383689704113
991000608299704113
991000302129704113
991001084399704113
991004528009704113
991005447169704113
991004904809704113
991001273529704113
991004421249704113
991000453609704113
991000077489704113
991000550459704113
991007474469704113
991002674389704113
991002240799704113
991002935379704113
991009194129704113
991000543929704113
991000538119704113
991007122679704113
991005272299704113
991001028349704113
991001576639704113
991001442989704113
991004830139704113
991000119039704113
991000017809704113
991002332269704113
991001536599704113
991001532459704113
991000165789704113
991007397769704113
991000665759704113
991006593649704113
991008014079704113
991000837709704113
991000415319704113
991000299459704113
991006911199704113
991000369519704113
991005813979704113
991001502729704113
991009983549704113
991002259509704113
991004695139704113
991000435249704113
991001776789704113
991007117849704113
991002339239704113
991002935349704113
991002889799704113
991004135799704113
991003824029704113
991008203419704113
991006560279704113
991007730829704113
991005592459704113
991000847839704113
991005478219704113
991001543909704113
991008491289704113
991007165319704113
991005781419704113
991000125039704113
991004653519704113
991004305989704113
991009943269704113
991002991589704113
991002303089704113
991000455369704113
991008306849704113
991001407549704113
991008632139704113
991002128729704113
991001813099704113
991004894409704113
991007018099704113
991009135029704113
991001794609704113
991010516699704113
991002268619704113
991000313599704113
991007134709704113
991001508909704113
991007481329704113
991004648739704113
991009942229704113
991002212509704113
991006073319704113
991001343339704113
991000706879704113
991007090359704113
991004466979704113
991003406889704113
991006122449704113
991006771579704113
991000464369704113
991003917989704113
991000036119704113
991002764099704113
991001720239704113
991004178049704113
991004127709704113
991001256749704113
991001458409704113
991006400159704113
991010400229704113
991005548099704113
991006032229704113
991010138649704113
991003123309704113
991000175149704113
991007517689704113
991003361969704113
991000965299704113
991001520469704113
991004303979704113
991004165159704113
991002991049704113
991009001579704113
991005240669704113
991001192089704113
991005388869704113
991002049259704113
991002807299704113
991002130889704113
991001967659704113
991001116059704113
991001953139704113
991010490579704113
991002250919704113
991010143589704113
991000483459704113
991004184929704113
991002181229704113
991000292869704113
991008706339704113
991004613259704113
991005363229704113
991002151299704113
991000798369704113
991000308189704113
991003309429704113
991004506459704113
991003648779704113
991007834789704113
991003395229704113
991000314749704113
991000143079704113
991006952919704113
991001046179704113
991001494459704113
991001255579704113
991006698819704113
991004178009704113
991003064839704113
991010038369704113
991004955079704113
991001534379704113
991010316089704113
991010367549704113
991006840869704113
991000566469704113
991001511279704113
991010299809704113
991001783549704113
991000577069704113
991000060669704113
991000217469704113
991000960949704113
991002341949704113
991002740359704113
991002049839704113
991003371619704113
991000816579704113
991001924599704113
991002081169704113
991004470309704113
991002280689704113
991000679399704113
991002139019704113
991002033279704113
991000056729704113
991002239679704113
991000268959704113
991002049289704113
991002186499704113
991001740759704113
991007311849704113
991002227209704113
991001272699704113
991004162959704113
991003519149704113
991001364509704113
991001287809704113
991005255179704113
991004162769704113
991003302869704113
991007220829704113
991004451129704113
991007731409704113
991002995979704113
991000302939704113
991003105679704113
991000570229704113
991004482859704113
991002723879704113
991006554099704113
991010562339704113
991000360589704113
991000051599704113
991000693489704113
991000515279704113
991001591609704113
991007132149704113
991003900639704113
991000181599704113
991003151269704113
991005345539704113
991000583139704113
991006898509704113
991009902809704113
991000237559704113
991010079799704113
991000298719704113
991007710279704113
991003151809704113
991003324639704113
991004897179704113
991000637899704113
991004652659704113
991008256899704113
991010154639704113
991010460679704113
991000486599704113
991006220839704113
991003098029704113
991000338919704113
991010173009704113
991003134699704113
991002140539704113
991007777489704113
991000613359704113
991003206169704113
991004183729704113
991000131869704113
991001413209704113
991001260989704113
991003283649704113
991010624159704113
991004655119704113
991007834809704113
991000071219704113
991008634039704113
991001599539704113
991006520599704113
991000151019704113
991000254779704113
991003088429704113
991000022519704113
991002088689704113
991007923009704113
991000772749704113
991002219059704113
991002037489704113
991008058289704113
991001135359704113
991001757239704113
991001541889704113
991006449549704113
991007330639704113
991002757559704113
991009122949704113
991006083679704113
991009992779704113
991001511259704113
991001431319704113
991000150969704113
991000925759704113
991000475939704113
991002574869704113
991001075419704113
991006027389704113
991002885659704113
991000054839704113
991004678829704113
991002127639704113
991000279379704113
991003209229704113
991002240019704113
991006885649704113
991001509409704113
991005372109704113
991002074359704113
991003687889704113
991007603699704113
991001511239704113
991000901829704113
991001770979704113
991001725169704113
991000205469704113
991004273259704113
991008199659704113
991003826739704113
991009980639704113
991004133909704113
991008272649704113
991001430359704113
991002174609704113
991001774219704113
991001317169704113
991002026829704113
991002132789704113
991004897609704113
991001555519704113
991003158359704113
991002058569704113
991008723159704113
991004396659704113
991000175359704113
991001312369704113
991005960979704113
991001166839704113
991010067589704113
991001741299704113
991002738919704113
991000341299704113
991003163629704113
991005554449704113
991005424479704113
991009926719704113
991007203639704113
991002158789704113
991002066369704113
991001473469704113
991004848579704113
991006136789704113
991004830159704113
991003191599704113
991006843549704113
991006463479704113
991002835519704113
991000052789704113
991004834349704113
991001437349704113
991003269979704113
991008597469704113
991005655729704113
991001402259704113
991002098139704113
991010031139704113
991002675159704113
991002316699704113
991001746569704113
991002123699704113
991007382969704113
991001270219704113
991001128939704113
991000104889704113
991004755949704113
991000394509704113
991002032919704113
991001949949704113
991003014189704113
991003628379704113
991003798809704113
991007499019704113
991003798859704113
991001075829704113
991003222669704113
991000609719704113
991006015609704113
991001151879704113
991008477959704113
991005146289704113
991004905229704113
991000637529704113
991003909339704113
991000036579704113
991002858099704113
991007584309704113
991003130589704113
991004723079704113
991001289499704113
991002972129704113
991008194839704113
991004818569704113
991001720829704113
991001553249704113
991004149479704113
991003241929704113
991007387239704113
991000873799704113
991003859729704113
991000906149704113
991001883239704113
991001297989704113
991006188489704113
991001275779704113
991001689859704113
991000052059704113
991001719819704113
991006239669704113
991000489269704113
991001284819704113
991003335959704113
991004333989704113
991010653999704113
991009951049704113
991008502799704113
991001319989704113
991001865019704113
991010373269704113
991003011279704113
991000564779704113
991001726889704113
991010552189704113
991006365119704113
991007019679704113
991007458139704113
991004672489704113
991006843089704113
991001672579704113
991008702279704113
991004673419704113
991002840829704113
991007643619704113
991008235169704113
991010031179704113
991010000619704113
991000927159704113
991000074899704113
991008275689704113
991008657989704113
991002609619704113
991004595229704113
991003279739704113
991007920799704113
991010568379704113
991010387219704113
991004686579704113
991010164169704113
991007481009704113
991010376599704113
991010557139704113
991004313219704113
991006978939704113
991001490719704113
991000905059704113
991010527409704113
991004422099704113
991001406829704113
991000933239704113
991000965849704113
991000916779704113
991001737909704113
991002810439704113
991005329479704113
991009911009704113
991001127919704113
991007899239704113
991004679059704113
991008056859704113
991007342949704113
991001298329704113
991000823489704113
991000030299704113
991006341599704113
991004783929704113
991002834569704113
991000351549704113
991002601549704113
991004731279704113
991007996289704113
991010277519704113
991000389229704113
991009119139704113
991007481699704113
991000409859704113
991004850739704113
991009193939704113
991001305219704113
991002027939704113
991004735669704113
991007603599704113
991001912559704113
991001355589704113
991001093969704113
991004672519704113
991000880629704113
991000042799704113
991001374199704113
991003208429704113
991000387869704113
991007711459704113
991000983119704113
991008700839704113
991001093929704113
991007341169704113
991000932259704113
991006072599704113
991001355369704113
991008751309704113
991001644669704113
991000788649704113
991000794779704113
991007158809704113
991004850819704113
991001642529704113
991001144659704113
991001372889704113
991007796799704113
991007605759704113
991006062339704113
991001598459704113
991006015969704113
991002796109704113
991001641629704113
991007432329704113
991004672439704113
991001751929704113
991003097429704113
991001703029704113
991010651949704113
991007390949704113
991007675819704113
991001940989704113
991001359239704113
991001295999704113
991001678649704113
991000982849704113
991001157859704113
991000975089704113
991002929279704113
991005642309704113
991001495469704113
991007608359704113
991003287879704113
991008909489704113
991008317339704113
991004727899704113
991001368009704113
991001024009704113
991001284119704113
991007996349704113
991001163289704113
991001737879704113
991001671529704113
991010429019704113
991004728109704113
991008677119704113
991008909899704113
991007661449704113
991003421109704113
991003421189704113
991004035439704113
991004149399704113
991007897269704113
991007314339704113
991009118789704113
991007899269704113
991008914559704113
991003093379704113
991005018819704113
991001744369704113
991003421139704113
991000894979704113
991006120909704113
991004149519704113
991006111929704113
991007664759704113
991010429199704113
991001628609704113
991001404009704113
991007672819704113
991010429149704113
991004035399704113
991000819339704113
991010321249704113
991007575779704113
991004282789704113
991000929099704113
991000978299704113
991007666229704113
991007662989704113
991008283449704113
991001161159704113
991008675089704113
991008302429704113
991000914819704113
991001098159704113
991001065239704113
991006120159704113
991010367369704113
991003798779704113
991001359969704113
991000536589704113
991007349139704113
991007129089704113
991001673829704113
991008769699704113
991008256549704113
991001632779704113
991008256069704113
991007632489704113
991007607239704113
991007622309704113
991007873129704113
991001710239704113
991007343189704113
991006194299704113
991010083759704113
991007835079704113
991007346009704113
991007575829704113
991010408629704113
991007672279704113
991004397849704113
991006533639704113
991004936589704113
991007694549704113
991008226799704113
991000841099704113
991002613309704113
991007760849704113
991004392679704113
991001257139704113
991000050319704113
991001295019704113
991001123219704113
991001082409704113
991000944229704113
991000724029704113
991006810969704113
991006885079704113
991000032329704113
991003023659704113
991004337489704113
991002770839704113
991001315379704113
991006677999704113
991005007459704113
991003202309704113
991007340379704113
991010302999704113
991009111769704113
991009121639704113
991004297049704113
991008242709704113
991005477139704113
991000264929704113
991004324789704113
991008654369704113
991005636659704113
991005026459704113
991007677699704113
991000963869704113
991007113249704113
991006763979704113
991007343949704113
991007676289704113
991000943049704113
991007284759704113
991010538529704113
991007642629704113
991000895469704113
991010480279704113
991001717039704113
991007606539704113
991004066729704113
991001305799704113
991001330299704113
991003756819704113
991000650639704113
991010268169704113
991006037649704113
991002571809704113
991001278099704113
991004699059704113
991006115559704113
991010031799704113
991001390939704113
991001483489704113
991006108199704113
991004303819704113
991000491239704113
991006040849704113
991006918219704113
991009109189704113
991007341909704113
991007515759704113
991001728929704113
991003207319704113
991007642009704113
991010538779704113
991004840499704113
991008210659704113
991001474629704113
991005317189704113
991004335729704113
991005597169704113
991003333659704113
991007497389704113
991007661919704113
991000511099704113
991003295049704113
991002626409704113
991004343719704113
991007897509704113
991008645299704113
991001343799704113
991007231719704113
991001003919704113
991007878049704113
991004569499704113
991001029589704113
991005616659704113
991007731249704113
991004447329704113
991003714609704113
991001681319704113
991001263619704113
991001315009704113
991004537399704113
991004660489704113
991007900409704113
991008640559704113
991004301539704113
991001703219704113
991004922519704113
991000917639704113
991004409229704113
991001036419704113
991006699709704113
991000895009704113
991006814629704113
991010137289704113
991006887129704113
991000804769704113
991008725969704113
991001566249704113
991007674229704113
991009119109704113
991007859069704113
991007660639704113
991001096319704113
991010581589704113
991007341619704113
991002595909704113
991009194699704113
991004360339704113
991009958139704113
991001619669704113
991008768679704113
991007624039704113
991007762869704113
991010174739704113
991004849669704113
991007622159704113
991005012439704113
991010067839704113
991003104429704113
991007769609704113
991002739529704113
991001702859704113
991004649399704113
991009915949704113
991007515589704113
991007476719704113
991002581439704113
991000852179704113
991005298769704113
991007342959704113
991001335869704113
991006758369704113
991010418849704113
991008894999704113
991007621939704113
991004680989704113
991000844119704113
991001649019704113
991008902029704113
991001629859704113
991006626239704113
991001009549704113
991001628949704113
991003343719704113
991002663669704113
991001744059704113
991006891879704113
991001641159704113
991007844739704113
991007129349704113
991007540249704113
991003733379704113
991010494169704113
991010181829704113
991006134039704113
991006134459704113
991007637189704113
991004839889704113
991000863609704113
991007646939704113
991007626219704113
991003104499704113
991010281979704113
991009111509704113
991001417099704113
991007883519704113
991000840419704113
991007917459704113
991000052159704113
991007770739704113
991006937519704113
991006011689704113
991001661299704113
991001714349704113
991000417709704113
991001152089704113
991001630079704113
991004431839704113
991001200479704113
991002942529704113
991005617159704113
991009116579704113
991007693359704113
991002602239704113
991007762499704113
991007901619704113
991001644759704113
991007623959704113
991000915229704113
991006758459704113
991000547739704113
991007598329704113
991007608229704113
991008712049704113
991001604219704113
991001563569704113
991001736949704113
991002856519704113
991005119819704113
991005388379704113
991010361039704113
991004370679704113
991007607599704113
991007616369704113
991004829509704113
991007581669704113
991007648719704113
991004535379704113
991004162869704113
991001702749704113
991007345659704113
991007609289704113
991006841149704113
991008906879704113
991000937909704113
991001342759704113
991001638689704113
991004793389704113
991007341529704113
991000930499704113
991005022529704113
991001699519704113
991001192779704113
991001366909704113
991004700989704113
991006595329704113
991001000519704113
991000838849704113
991007924189704113
991001799859704113
991007995179704113
991005406579704113
991000727869704113
991000593069704113
991001170289704113
991001748739704113
991004666839704113
991004033299704113
991006293599704113
991007791399704113
991000785879704113
991001072519704113
991007739909704113
991001020249704113
991006701119704113
991008716039704113
991001337859704113
991001648129704113
991001208769704113
991000702999704113
991005565299704113
991004725589704113
991001395069704113
991010332289704113
991007634309704113
991000056489704113
991001298369704113
991000075079704113
991010335919704113
991001702889704113
991007247319704113
991001620739704113
991003163909704113
991001296289704113
991001377639704113
991009154939704113
991008058989704113
991000698909704113
991008893219704113
991001022559704113
991001305759704113
991004438159704113
991001665559704113
991008914709704113
991001402119704113
991001354969704113
991001652399704113
991002672409704113
991001714209704113
991001305579704113
991005764709704113
991000808749704113
991008295779704113
991005763239704113
991003021609704113
991002710689704113
991001399549704113
991000840729704113
991001628309704113
991007342639704113
991000517409704113
991000846349704113
991005528129704113
991005468879704113
991000794349704113
991001638949704113
991001847379704113
991001638989704113
991001752489704113
991001713849704113
991007340979704113
991000669419704113
991001337489704113
991001636359704113
991001712049704113
991001543389704113
991005246389704113
991007991159704113
991002795919704113
991001690619704113
991006593679704113
991008902269704113
991000833859704113
991000774649704113
991003142449704113
991001721459704113
991008670489704113
991000050939704113
991000791519704113
991007341489704113
991000694149704113
991001702839704113
991006388659704113
991004160409704113
991001144219704113
991000612859704113
991007148239704113
991007886909704113
991008458909704113
991010409149704113
991007642919704113
991001676139704113
991008602889704113
991000443899704113
991001819389704113
991001702709704113
991000219819704113
991007873789704113
991007617309704113
991007790769704113
991002929239704113
991001789589704113
991007601259704113
991008700309704113
991007642889704113
991001404559704113
991001713999704113
991007356069704113
991001711419704113
991007596099704113
991000967389704113
991007435579704113
991001645919704113
991007661049704113
991001118579704113
991001305099704113
991000661629704113
991007344269704113
991007602739704113
991004675389704113
991001641939704113
991010400919704113
991008256179704113
991009903749704113
991009204859704113
991009992259704113
991008215289704113
991008263959704113
991009000819704113
991010152009704113
991002642789704113
991004318799704113
991007913029704113
991006870049704113
991007342929704113
991010159479704113
991007674069704113
991001735579704113
991007197389704113
991006450939704113
991009187959704113
991010455769704113
991008602819704113
991001664359704113
991005089309704113
991005119599704113
991009911339704113
991007302009704113
991004539839704113
991008202119704113
991008192949704113
991006737249704113
991007603719704113
991008519899704113
991009930049704113
991007874629704113
991009123109704113
991004655949704113
991001616259704113
991004723939704113
991007785689704113
991008210689704113
991001738509704113
991008610249704113
991001599099704113
991001710119704113
991007862319704113
991008674859704113
991007557869704113
991009970609704113
991007673659704113
991007030889704113
991008514769704113
991007030869704113
991008256009704113
991010493799704113
991008256039704113
991007591079704113
991006754149704113
991006946539704113
991007197359704113
991007474089704113
991010322159704113
991002714989704113
991008642989704113
991001035379704113
991004821899704113
991009968389704113
991001746899704113
991000394929704113
991010418279704113
991008246889704113
991001596379704113
991010552119704113
991001722709704113
991001612419704113
991008903759704113
991010416329704113
991001348009704113
991008903189704113
991007161739704113
991005765289704113
991007885069704113
991001679249704113
991009233399704113
991006863279704113
991008752209704113
991006201329704113
991007578039704113
991000177199704113
991007339749704113
991008643509704113
991008643449704113
991004719639704113
991007387469704113
991007488299704113
991010534499704113
991003141949704113
991007110789704113
991010040309704113
991002714419704113
991008479279704113
991010331669704113
991003317499704113
991007547589704113
991008514949704113
991008671839704113
991008201559704113
991007594759704113
991004681259704113
991008284069704113
991003051869704113
991007883869704113
991008643349704113
991009933389704113
991002943479704113
991006455119704113
991005182609704113
991004819239704113
991007787209704113
991008267339704113
991001739499704113
991006953529704113
991004536689704113
991006747269704113
991007016799704113
991008687719704113
991001608349704113
991008514749704113
991007757749704113
991007842559704113
991006110549704113
991009185699704113
991006066839704113
991008766739704113
991004140069704113
991010033359704113
991008749289704113
991004919619704113
991006109489704113
991007869819704113
991008675459704113
991004316749704113
991007920899704113
991007384109704113
991009000869704113
991000858599704113
991001679609704113
991010177169704113
991009999009704113
991010325459704113
991010281499704113
991000858249704113
991010607719704113
991000292189704113
991009121069704113
991007557609704113
991004306149704113
991010177529704113
991001417159704113
991007245289704113
991007031269704113
991007486119704113
991007711019704113
991008732789704113
991006079289704113
991004822349704113
991006984799704113
991008927859704113
991003310059704113
991008732739704113
991008716299704113
991009059009704113
991001308889704113
991006708429704113
991007884419704113
991006685369704113
991010084849704113
991010125659704113
991007387849704113
991008770099704113
991007616659704113
991008602929704113
991003782769704113
991005106869704113
991003150879704113
991007361649704113
991008516499704113
991002693869704113
991002862069704113
991007301929704113
991005035939704113
991007635369704113
991007760649704113
991000565779704113
991006777099704113
991007790949704113
991007869259704113
991001395599704113
991004820299704113
991010336189704113
991008892589704113
991005247919704113
991007597229704113
991007060729704113
991005905899704113
991007641669704113
991000007139704113
991001562989704113
991009905319704113
991003647869704113
991007916979704113
991003102589704113
991003123269704113
991005912529704113
991006058789704113
991007481069704113
991010070139704113
991004285009704113
991008929999704113
991004397639704113
991004649459704113
991000269069704113
991009186879704113
991001635849704113
991007771769704113
991006107699704113
991001415139704113
991005651189704113
991010002369704113
991009905289704113
991007438589704113
991008292999704113
991007557129704113
991004259469704113
991008892309704113
991004849039704113
991003621879704113
991004585359704113
991003422509704113
991008937309704113
991007387689704113
991010040349704113
991007354029704113
991010177119704113
991009059149704113
991001514419704113
991009904239704113
991010025229704113
991008878929704113
991007355009704113
991006371289704113
991002931819704113
991009945379704113
991010137089704113
991007142879704113
991006829239704113
991008701469704113
991004169989704113
991004658839704113
991010086279704113
991010633639704113
991008292979704113
991005589709704113
991001402359704113
991009159769704113
991010083629704113
991007362459704113
991010137489704113
991008283949704113
991006239869704113
991001658869704113
991010279719704113
991003780329704113
991002870739704113
991008238229704113
991007387649704113
991006981419704113
991004686959704113
991007601079704113
991006241389704113
991006120199704113
991006112559704113
991006107919704113
991004648849704113
991006240369704113
991001655509704113
991009970639704113
991005527059704113
991003827519704113
991010139959704113
991003621629704113
991001654119704113
991004537489704113
991010122359704113
991001728319704113
991005523319704113
991009913229704113
991001397899704113
991005398139704113
991005539249704113
991004422899704113
991007037849704113
991001403179704113
991001403089704113
991010268099704113
991007221989704113
991005820469704113
991010083669704113
991009990969704113
991002812519704113
991005984889704113
991004443879704113
991004404369704113
991005262359704113
991006499139704113
991005763409704113
991000044229704113
991005763499704113
991006882719704113
991007596429704113
991007361779704113
991005763709704113
991010190269704113
991003090609704113
991002914909704113
991003136169704113
991003280609704113
991007319019704113
991006354989704113
991005117289704113
991010279819704113
991001396689704113
991004537599704113
991009904329704113
991004318079704113
991008059459704113
991008229939704113
991004360299704113
991002694819704113
991010495909704113
991007759829704113
991005539049704113
991003653989704113
991004816699704113
991007694399704113
991004399289704113
991009970419704113
991000277819704113
991000098049704113
991004309639704113
991001615669704113
991002824539704113
991005536619704113
991006387609704113
991001414869704113
991002820529704113
991006188889704113
991001009809704113
991007603479704113
991006593959704113
991001409399704113
991006115509704113
991007760599704113
991007763669704113
991007641979704113
991006103329704113
991004816979704113
991002568359704113
991000361309704113
991007308959704113
991004323569704113
991008682919704113
991007795079704113
991010375809704113
991004819139704113
991003226329704113
991007796349704113
991000736189704113
991004649949704113
991010177379704113
991008896529704113
991007387429704113
991010559659704113
991008711579704113
991007387329704113
991006375839704113
991007387079704113
991010182669704113
991009919319704113
991010055819704113
991004337849704113
991004650819704113
991008710929704113
991004358799704113
991000068739704113
991000816889704113
991007900319704113
991006253459704113
991007792469704113
991007890429704113
991003234239704113
991006188449704113
991002791829704113
991004295939704113
991003093809704113
991004420689704113
991008773639704113
991004672229704113
991004149039704113
991003901629704113
991005535729704113
991008056789704113
991007896039704113
991003261139704113
991002613519704113
991006200699704113
991010454459704113
991004367089704113
991007481039704113
991008054639704113
991010503399704113
991000282899704113
991010404139704113
991008275289704113
991009186469704113
991001672699704113
991002705599704113
991007917979704113
991004390029704113
991007561549704113
991007666349704113
991006702329704113
991006241199704113
991006871339704113
991010036999704113
991001416029704113
991006113979704113
991001715039704113
991006850279704113
991007524289704113
991007602969704113
991008070029704113
991004538179704113
991007337199704113
991007823589704113
991006128929704113
991007507519704113
991007546499704113
991005999679704113
991010613729704113
991007889489704113
991010083919704113
991010653969704113
991010084159704113
991004358729704113
991008930209704113
991008897919704113
991001750499704113
991007152019704113
991008943399704113
991006108089704113
991007819279704113
991008217049704113
991008282109704113
991009225239704113
991006201289704113
991008676719704113
991007762569704113
991007793919704113
991009992139704113
991007484299704113
991008899149704113
991003095939704113
991005045509704113
991010105119704113
991006132829704113
991002656049704113
991005538669704113
991010021499704113
991009186629704113
991004589869704113
991010036899704113
991006104239704113
991003712859704113
991006111829704113
991006141929704113
991005524039704113
991003081419704113
991010083979704113
991006240629704113
991006117659704113
991004632569704113
991006240989704113
991008918029704113
991010169959704113
991005924709704113
991006242669704113
991008179809704113
991008683809704113
991007838819704113
991003409669704113
991006974049704113
991000397899704113
991010084039704113
991003091979704113
991010083959704113
991007608259704113
991006134219704113
991004435669704113
991010416619704113
991006115579704113
991006913019704113
991000760379704113
991006240939704113
991010083779704113
991010083799704113
991006193119704113
991006122309704113
991010086969704113
991006653059704113
991010084099704113
991010083859704113
991007498349704113
991005476949704113
991000596299704113
991005523639704113
991002576759704113
991005816539704113
991000647909704113
991010307609704113
991010268269704113
991005524079704113
991010083889704113
991010411749704113
991006241889704113
991003080819704113
991005523909704113
991006188959704113
991006240329704113
991000917429704113
991001255179704113
991000484729704113
991006905889704113
991005246979704113
991006742409704113
991001841019704113
991005538699704113
991007550759704113
991001444739704113
991000546439704113
991001120569704113
991007440759704113
991008675319704113
991001487849704113
991008275649704113
991010601109704113
991002832559704113
991007816809704113
991007384129704113
991006114159704113
991007500509704113
991006104199704113
991010552169704113
991006398939704113
991006240699704113
991001417129704113
991010568059704113
991007204249704113
991005536079704113
991001891099704113
991003326419704113
991007316219704113
991008706909704113
991006129069704113
991006239259704113
991006104269704113
991008701499704113
991001870179704113
991006104289704113
991003091749704113
991008280149704113
991006117759704113
991007282439704113
991010147009704113
991008058239704113
991010040509704113
991004864749704113
991006189129704113
991000508189704113
991004041659704113
991003393559704113
991001474989704113
991006242269704113
991000683269704113
991010086999704113
991003393599704113
991000517569704113
991006242529704113
991000632739704113
991000099099704113
991003891439704113
991010113659704113
991006015999704113
991004861589704113
991000294059704113
991007581839704113
991010268139704113
991004475799704113
991006015939704113
991010603319704113
991010036959704113
991009919289704113
991007848019704113
991004035479704113
991003287639704113
991003287729704113
991003690549704113
991010105159704113
991010105189704113
991010104279704113
991010105549704113
991010105569704113
991010105589704113
991010105469704113
991010105509704113
991010105379704113
991010104089704113
991010105249704113
991010104679704113
991010103939704113
991010104109704113
991007735839704113
991010104129704113
991010104169704113
991010104939704113
991010103989704113
991010104199704113
991000067229704113
991000162819704113
991003287849704113
991000115049704113
991000068049704113
991000067919704113
991010105399704113
991010104899704113
991006194339704113
991010105449704113
991000089679704113
991001103989704113
991000518459704113
991010037029704113
991006120229704113
991006114689704113
991000796899704113
991000067999704113
991006105639704113
991006240459704113
991006200769704113
991006240739704113
991000796299704113
991006107559704113
991006111899704113
991002986649704113
991006475369704113
991000099029704113
991006104399704113
991000856269704113
991005511119704113
991006837469704113
991006114369704113
991006115659704113
991003900449704113
991001402279704113
991000597569704113
991006016029704113
991008732819704113
991003421229704113
991003798759704113
991006129019704113
991006112959704113
991006113069704113
991005523739704113
991006197699704113
991007847869704113
991005523679704113
991000880059704113
991009110109704113
991010062269704113
991000685579704113
991007488269704113
991007488239704113
991008683859704113
991006118149704113
991006118199704113
991008603539704113
991004320449704113
991006104329704113
991000920069704113
991001392849704113
991007906039704113
991006104249704113
991006132999704113
991006113149704113
991010317949704113
991006473769704113
991006197619704113
991006113099704113
991006190759704113
991006899189704113
991006107519704113
991010091599704113
991000075849704113
991006239939704113
991006108059704113
991001870359704113
991003328579704113
991006105419704113
991006522479704113
991000608919704113
991010384309704113
991007847899704113
991008672749704113
991010036919704113
991008629409704113
991006190949704113
991003017599704113
991006133509704113
991001800759704113
991001755909704113
991005356759704113
991001411809704113
991010384359704113
991006587199704113
991000856499704113
991007480249704113
991007235119704113
991008730189704113
991008731209704113
991008546589704113
991001520609704113
991007392219704113
991005282309704113
991003157939704113
991006993579704113
991005996239704113
991004654579704113
991006244529704113
991009987389704113
991009884869704113
991010086389704113
991008701419704113
991001412089704113
991008641829704113
991010177209704113
991000857849704113
991010551109704113
991001417299704113
991007386869704113
991007470059704113
991003317289704113
991007739509704113
991007889789704113
991004433899704113
991008910149704113
991008935009704113
991007676419704113
991007009019704113
991010494109704113
991007075559704113
991004841229704113
991006464069704113
991006883329704113
991003342219704113
991008934699704113
991006936079704113
991004073929704113
991006030069704113
991010401009704113
991004437059704113
991008614479704113
991008705219704113
991002909009704113
991007764749704113
991010000649704113
991000858489704113
991004819089704113
991005308179704113
991007520719704113
991007675419704113
991008225299704113
991007888259704113
991003629899704113
991008697709704113
991004320039704113
991010086879704113
991010479279704113
991000547589704113
991001264659704113
991010013689704113
991010604829704113
991007537139704113
991010534749704113
991004369439704113
991008514849704113
991001013409704113
991006909129704113
991007794749704113
991007236199704113
991010086009704113
991007739739704113
991008763469704113
991004659599704113
991000875599704113
991008293919704113
991007564229704113
991005118039704113
991004332669704113
991004833589704113
991005463239704113
991006623899704113
991010144139704113
991001713729704113
991001668569704113
991001316799704113
991010604729704113
991000875559704113
991009997469704113
991007693229704113
991007872939704113
991010185739704113
991005123489704113
991008714269704113
991004679849704113
991007284459704113
991009916329704113
991002802439704113
991000598369704113
991001724469704113
991001703259704113
991008312209704113
991001194729704113
991008730769704113
991010580999704113
991000704309704113
991000255409704113
991002814579704113
991007666389704113
991007784759704113
991007621179704113
991005908239704113
991003301159704113
991010604669704113
991010520669704113
991000816259704113
991001712729704113
991001025919704113
991001836129704113
991008207889704113
991005821699704113
991003305459704113
991007475589704113
991008678689704113
991007890689704113
991010604859704113
991005766289704113
991008644579704113
991000535189704113
991009062199704113
991003264949704113
991004946649704113
991007782449704113
991008889029704113
991005106789704113
991007923249704113
991008053529704113
991000045809704113
991005118489704113
991005767609704113
991004366139704113
991008066069704113
991004311759704113
991004849119704113
991006400069704113
991007815009704113
991007728939704113
991001583629704113
991002917829704113
991007899419704113
991001648379704113
991007599999704113
991007545479704113
991007898029704113
991001658009704113
991001608829704113
991007060019704113
991001676449704113
991005311659704113
991008059609704113
991003343609704113
991004144859704113
991007062519704113
991009944629704113
991000830469704113
991000816919704113
991000961109704113
991002875099704113
991007485449704113
991009903979704113
991006134909704113
991006083509704113
991000785439704113
991002845449704113
991001006569704113
991004662729704113
991007062069704113
991006899109704113
991000255709704113
991007660479704113
991008700119704113
991006940969704113
991007556759704113
991010020309704113
991000826639704113
991006756999704113
991010153559704113
991009232079704113
991007062199704113
991006972469704113
991006242739704113
991002646909704113
991000066619704113
991007869899704113
991004133579704113
991009221179704113
991007798729704113
991000633799704113
991010457919704113
991005367289704113
991001302819704113
991008659269704113
991006883439704113
991006560639704113
991008903219704113
991009186379704113
991007757839704113
991006127069704113
991005603179704113
991003773289704113
991007401129704113
991009881409704113
991000475799704113
991007769429704113
991007397939704113
991001629239704113
991004311499704113
991000560329704113
991002934269704113
991010458269704113
991009186089704113
991007915909704113
991002694869704113
991003372829704113
991004510219704113
991000592229704113
991007062319704113
991004385999704113
991003306369704113
991000855609704113
991010086859704113
991007300189704113
991008058399704113
991008879109704113
991004436769704113
991007567919704113
991010604399704113
991001604719704113
991001635399704113
991001635329704113
991005380909704113
991000065539704113
991001731709704113
991000610469704113
991002699769704113
991007512959704113
991010031709704113
991008938699704113
991006916369704113
991005014579704113
991007006629704113
991007629709704113
991007648899704113
991004680409704113
991004661649704113
991008275619704113
991004648659704113
991002928039704113
991007006009704113
991007893739704113
991007603529704113
991007857929704113
991004301319704113
991008267009704113
991007457969704113
991007884859704113
991004202899704113
991007537529704113
991008069569704113
991006260399704113
991001662899704113
991003309499704113
991006919269704113
991003142709704113
991008878129704113
991007883699704113
991004203739704113
991008054609704113
991004388859704113
991001183019704113
991003145609704113
991004465259704113
991001716789704113
991007463619704113
991007761099704113
991008050039704113
991007883749704113
991010491449704113
991004434019704113
991007512409704113
991005222189704113
991008232789704113
991004922029704113
991001752029704113
991007903809704113
991004830529704113
991008945659704113
991007301139704113
991002672849704113
991002909049704113
991007608169704113
991004203599704113
991007616129704113
991001098089704113
991004190949704113
991010568309704113
991004775769704113
991004537639704113
991008003379704113
991004784049704113
991007432949704113
991010557609704113
991007793829704113
991007620239704113
991001731459704113
991005123099704113
991004299509704113
991003113059704113
991008943649704113
991007917359704113
991001735889704113
991002805569704113
991008233709704113
991008943519704113
991004683069704113
991001562399704113
991004658639704113
991004320109704113
991005235919704113
991007606879704113
991006883509704113
991008214209704113
991004870069704113
991008898999704113
991001514339704113
991008479809704113
991001458299704113
991007314899704113
991001559689704113
991001405419704113
991001468149704113
991001750079704113
991007497509704113
991007577559704113
991007403639704113
991003112989704113
991006386909704113
991002695299704113
991007628489704113
991004435769704113
991006079989704113
991007006039704113
991004314419704113
991007694519704113
991002677999704113
991004861999704113
991004194159704113
991004660449704113
991004332749704113
991005146629704113
991004148359704113
991001713809704113
991004700609704113
991001730649704113
991000854889704113
991008646469704113
991004159539704113
991005146059704113
991001269769704113
991001621469704113
991003059659704113
991001683039704113
991005123349704113
991004293359704113
991003006999704113
991004397599704113
991005816069704113
991004819069704113
991004140859704113
991002959789704113
991003282229704113
991004422469704113
991004859699704113
991000662199704113
991004408479704113
991004780989704113
991007613709704113
991004819039704113
991008082879704113
991008711829704113
991004408439704113
991008231259704113
991007869769704113
991010077409704113
991007061789704113
991010527439704113
991007863149704113
991004171619704113
991007758399704113
991000636729704113
991007387629704113
991005141489704113
991001748859704113
991001697689704113
991008918729704113
991007498979704113
991004160349704113
991004162129704113
991001631239704113
991003623799704113
991007061859704113
991003224229704113
991004134559704113
991008918899704113
991004308259704113
991001712459704113
991003164679704113
991008918619704113
991004402209704113
991004683199704113
991003299079704113
991001304849704113
991008659419704113
991009119259704113
991000535499704113
991005132089704113
991004832509704113
991001720429704113
991004314859704113
991007771449704113
991008058909704113
991000073439704113
991000108279704113
991006193099704113
991005647989704113
991006112489704113
991008068899704113
991008055489704113
991004678739704113
991001705529704113
991001355719704113
991004319329704113
991005123449704113
991000890699704113
991001427649704113
991005586039704113
991008063499704113
991001713189704113
991006115089704113
991007782329704113
991010633609704113
991000516119704113
991006141889704113
991005045639704113
991008918589704113
991006104119704113
991007870599704113
991007452859704113
991000601319704113
991003334839704113
991010177919704113
991005135229704113
991004801879704113
991008910989704113
991005150909704113
991005107249704113
991007667199704113
991007913809704113
991002850929704113
991005155259704113
991010260759704113
991008234769704113
991007998209704113
991004161079704113
991004773599704113
991001747859704113
991008921869704113
991007592259704113
991004201389704113
991001268749704113
991007384069704113
991001638199704113
991004923639704113
991004319459704113
991004293519704113
991007061749704113
991007605189704113
991006197319704113
991000174639704113
991007631549704113
991000115409704113
991007870069704113
991007602619704113
991007862829704113
991010491559704113
991008058129704113
991005816249704113
991010031769704113
991008267229704113
991008905039704113
991004928319704113
991004434299704113
991007871829704113
991007504719704113
991001630629704113
991000030819704113
991000008009704113
991000013789704113
991008053679704113
991006848569704113
991008013229704113
991004201869704113
991008066279704113
991002675539704113
991004165109704113
991000176769704113
991008069009704113
991004433489704113
991007887439704113
991003887769704113
991008055549704113
991007431389704113
991004191469704113
991010457889704113
991007991559704113
991001738179704113
991010590209704113
991004666769704113
991000493419704113
991001371179704113
991000661379704113
991010783699704113
991006367709704113
991002709479704113
991005779329704113
991007335449704113
991001708509704113
991007706369704113
991007746399704113
991007772559704113
991007620339704113
991009125229704113
991004311539704113
991005043879704113
991008682899704113
991001509579704113
991004371389704113
991006521229704113
991000662359704113
991006842329704113
991001722789704113
991004490869704113
991003050249704113
991000396739704113
991001594529704113
991001610879704113
991004336379704113
991001789349704113
991002808949704113
991003231909704113
991006665729704113
991004639689704113
991001612139704113
991001599219704113
991003379129704113
991001514889704113
991001800689704113
991006884629704113
991001180869704113
991000849969704113
991000593839704113
991000526849704113
991005288839704113
991001009239704113
991007903969704113
991003030739704113
991001515669704113
991001351789704113
991007335719704113
991008267259704113
991008779449704113
991008918489704113
991004658419704113
991007491059704113
991001301819704113
991000003539704113
991004201429704113
991006948459704113
991005222299704113
991005043639704113
991009100999704113
991007517669704113
991007846769704113
991007406209704113
991005020689704113
991009062059704113
991009067999704113
991001630739704113
991004227039704113
991004344949704113
991007061709704113
991004317709704113
991009185879704113
991001305129704113
991006014319704113
991005038389704113
991002754309704113
991001346219704113
991002608389704113
991005655579704113
991002596169704113
991003303239704113
991003712969704113
991001480279704113
991003303149704113
991002596139704113
991003697209704113
991001401039704113
991002608179704113
991004400229704113
991000030949704113
991000013619704113
991000013989704113
991002698939704113
991000008789704113
991001133179704113
991000182109704113
991010588529704113
991005552249704113
991006103099704113
991005778629704113
991007350469704113
991003259319704113
991010529979704113
991000743909704113
991008637439704113
991001804909704113
991000013019704113
991008637379704113
991008637409704113
991000955099704113
991007802379704113
991001718329704113
991001995559704113
991001936019704113
991002599709704113
991001777919704113
991004161299704113
991004161509704113
991000125589704113
991001530369704113
991010157079704113
991001598559704113
991001960089704113
991001981009704113
991001584879704113
991006238539704113
991001983549704113
991001201559704113
991010448999704113
991001917359704113
991005475409704113
991000152359704113
991000080239704113
991002669299704113
991003139439704113
991000312389704113
991004161269704113
991009920539704113
991002915399704113
991009108389704113
991003069349704113
991000459729704113
991007745849704113
991002853979704113
991000006339704113
991001585149704113
991002143669704113
991010741489704113
991006811249704113
yearbook1984
yearbook1986
yearbook1987
yearbook1988
yearbook1990
yearbook1992
yearbook1995
yearbook1996
yearbook1997
yearbook1998
yearbook1999
yearbook2000
yearbook2001
yearbook1989
yearbook1991
yearbook1983
991007529299704113
991010457769704113
991010164489704113
991008913349704113
991002917129704113
991001856239704113
991008894939704113
991001699969704113
991004835589704113
991000327589704113
991000320749704113
991001212509704113
991002202689704113
991004848439704113
991002748319704113
991006142099704113
991008064649704113
991009994869704113
991003274259704113
991000963989704113
991002673559704113
991008909329704113
991010172139704113
991008317929704113
991005527989704113
991007165479704113
991000771209704113
991000353069704113
991005421699704113
991005011679704113
991001561909704113
991009122609704113
991008528889704113
991005963179704113
991007991079704113
991007822209704113
991003130769704113
991003347659704113
991001594409704113
991006450209704113
991006473389704113
991009221019704113
991002234689704113
991000935959704113
991008710909704113
991002057829704113
991003180799704113
991005008329704113
991009160029704113
991000489659704113
991007851619704113
991001069229704113
991002237319704113
991000503829704113
991006563969704113
991000878259704113
991000394089704113
991006092859704113
991006800859704113
991007675849704113
991001134199704113
991001291979704113
991006242379704113
991003187469704113
991001909069704113
991004401079704113
991006240039704113
991002012019704113
991000889419704113
991003254009704113
991001616829704113
991007001699704113
991001870109704113
991007520669704113
991003869609704113
991010624589704113
991001824699704113
991001713439704113
991008646609704113
991009227569704113
991000136409704113
991004502399704113
991001880759704113
991001952689704113
991006105239704113
991003919219704113
991000964579704113
991003638919704113
991001492769704113
991002012299704113
991008210569704113
991005757149704113
991001439139704113
991001811919704113
991004684409704113
991007315159704113
991001460509704113
991007268699704113
991008263849704113
991006239279704113
991000749619704113
991001032929704113
991002925399704113
991006239429704113
991006431969704113
991006069869704113
991000858179704113
991007387509704113
991001749999704113
991001597229704113
991001594019704113
991000211479704113
991006117779704113
991006475189704113
991000463669704113
991007542809704113
991000568889704113
991000755999704113
991007357169704113
991008180159704113
991007253339704113
991010447439704113
991001572979704113
991000799219704113
991010669379704113
991010015529704113
991010289559704113
991003269929704113
991007807429704113
991001750059704113
991009954489704113
991005016939704113
991006117389704113
991006120319704113
991002657199704113
991004189779704113
991001642339704113
991008501979704113
991007492759704113
991004399229704113
991003370629704113
991010669409704113
991005894159704113
991001737119704113
991004685309704113
991003128369704113
991007491399704113
991002199969704113
991002168419704113
991000005329704113
991010107229704113
991000325699704113
991002848099704113
991007132189704113
991001406289704113
991006226179704113
991006239029704113
991006103999704113
991010483199704113
991010040539704113
991009901199704113
991003091699704113
991007663199704113
991007602939704113
991006528609704113
991004032029704113
991000956269704113
991000550389704113
991001616219704113
991006092829704113
991010148269704113
991009922249704113
991009912969704113
991005328989704113
991010180679704113
991004164739704113
991001529079704113
991007847959704113
991007921099704113
991002092449704113
991004199219704113
991004367639704113
991001873469704113
991008179879704113
991008730289704113
991006241969704113
991007762249704113
991007905839704113
991008059169704113
991002168009704113
991006282219704113
991001240769704113
991000830339704113
991006117319704113
991001548029704113
991000340429704113
991007629429704113
991008235049704113
991002236229704113
991010434679704113
991010282369704113
991004618399704113
991007729539704113
991009220069704113
991001504429704113
991006026879704113
991001924809704113
991002245189704113
991000491559704113
991000701419704113
991010381579704113
991008608789704113
991007338599704113
991007282329704113
991002925489704113
991000503259704113
991008932249704113
991000880219704113
991004752459704113
991000191619704113
991002107489704113
991002075459704113
991000165919704113
991000451209704113
991000199649704113
991005380619704113
991007615019704113
991000637669704113
991006745359704113
991000676639704113
991006894319704113
991007630959704113
991010542229704113
991004691589704113
991001634049704113
991002242739704113
991000334369704113
991004850559704113
991006394359704113
991006472899704113
991005407379704113
991003223819704113
991003188169704113
991007536929704113
991003640429704113
991004752409704113
991002654099704113
991003808969704113
991009934289704113
991003234459704113
991002162539704113
991004717119704113
991001483619704113
991006045259704113
991006839029704113
991007024539704113
991002800919704113
991008934919704113
991002260849704113
991001323289704113
991007760749704113
991008934949704113
991000973419704113
991004797689704113
991003648679704113
991000813679704113
991001066579704113
991001638059704113
991000889159704113
991001460779704113
991007552889704113
991006194149704113
991007724129704113
991008920999704113
991006310269704113
991008911409704113
991005289469704113
991006285849704113
991008076309704113
991004303779704113
991008076359704113
991008013829704113
991010026209704113
991004320529704113
991006389099704113
991006314889704113
991007762559704113
991007489459704113
991000817749704113
991000121039704113
991004647239704113
991007391399704113
991004714749704113
991002217709704113
991007768139704113
991007651929704113
991004133619704113
991004164819704113
991005966059704113
991004436409704113
991008692159704113
991010647169704113
991003850219704113
991009126549704113
991005756809704113
991000695969704113
991002672979704113
991006239509704113
991003705239704113
991006195149704113
991002254099704113
991000174079704113
991008727929704113
991003335989704113
991000527759704113
991000294469704113
991003776749704113
991008474999704113
991005289019704113
991007590979704113
991000813779704113
991000441519704113
991006105369704113
991003282649704113
991004914829704113
991001457509704113
991000902269704113
991002761219704113
991004132519704113
991004032469704113
991006094479704113
991000687199704113
991001727009704113
991001456129704113
991006189069704113
991003945569704113
991004784069704113
991002058669704113
991003209189704113
991006886999704113
991004606199704113
991002817109704113
991005935869704113
991002949649704113
991007810819704113
991006239589704113
991007485979704113
991004032249704113
991000902869704113
991002620039704113
991007896359704113
991002801029704113
991005502759704113
991010481369704113
991001589649704113
991010025089704113
991000270469704113
991002257489704113
991004804139704113
991003722269704113
991000108179704113
991010136019704113
991002753669704113
991003057479704113
991001871969704113
991003648879704113
991007521989704113
991007154169704113
991003925219704113
991002325319704113
991000981089704113
991003415769704113
991000822469704113
991000531139704113
991001783449704113
991006579649704113
991008733899704113
991002584529704113
991001725699704113
991000739519704113
991001275599704113
991003656319704113
991003397059704113
991000098129704113
991000340769704113
991009090409704113
991002045109704113
991005315059704113
991005432669704113
991001593699704113
991001045939704113
991001164009704113
991002232669704113
991002660719704113
991003262289704113
991006141209704113
991010008789704113
991010099669704113
991004842749704113
991004857359704113
991007260339704113
991004407669704113
991008275999704113
991002261799704113
991001162669704113
991002246559704113
991003688569704113
991003134379704113
991004722079704113
991006061739704113
991001299919704113
991009108489704113
991003304959704113
991004298259704113
991000135249704113
991000254409704113
991002179369704113
991002738439704113
991002842469704113
991007777189704113
991001958299704113
991002226519704113
991000121079704113
991004574149704113
991003270689704113
991002183579704113
991002253159704113
991000503019704113
991003722569704113
991001958879704113
991004595549704113
991002012659704113
991001174929704113
991006951719704113
991002206379704113
991003275839704113
991004062349704113
991002935519704113
991003081309704113
991004361329704113
991002213639704113
991001523219704113
991005350269704113
991007376369704113
991010470179704113
991004730359704113
991005980439704113
991000413969704113
991010364929704113
991001366349704113
991000383179704113
991000209569704113
991000837529704113
991002792289704113
991002846119704113
991010376539704113
991002851139704113
991000437529704113
991002754939704113
991006323509704113
991000831429704113
991006754759704113
991002738519704113
991001819109704113
991003314589704113
991006221029704113
991007137299704113
991010158049704113
991001455309704113
991010602939704113
991006071779704113
991010193809704113
991000934629704113
991004350549704113
991001087699704113
991001000159704113
991000201869704113
991004158059704113
991002243189704113
991003080629704113
991000056739704113
991001681029704113
991000662949704113
991000092489704113
991004154369704113
991007834849704113
991007728059704113
991000864309704113
991000098909704113
991000232089704113
991000317399704113
991007138089704113
991008601419704113
991001581359704113
991001259409704113
991002081499704113
991002792189704113
991010397419704113
991001497989704113
991007268439704113
991008183239704113
991000056359704113
991003302619704113
991008515959704113
991009971209704113
991004169849704113
991002133069704113
991003034889704113
991000727359704113
991001093679704113
991010013249704113
991004276299704113
991001957959704113
991002034569704113
991007590019704113
991007848129704113
991000292629704113
991004685109704113
991009913009704113
991002269319704113
991002258949704113
991002191099704113
991004277579704113
991006724389704113
991001425329704113
991000345329704113
991000623859704113
991001774289704113
991010621539704113
991003315149704113
991003328689704113
991005765129704113
991000064349704113
991006968109704113
991003665979704113
991002328849704113
991001504099704113
991004134039704113
991002783059704113
991007404499704113
991000620899704113
991001806799704113
991000898129704113
991001999839704113
991006555199704113
991000870389704113
991001101599704113
991005500239704113
991010367619704113
991005013489704113
991004445219704113
991002597529704113
991005642439704113
991000905249704113
991000907029704113
991007137649704113
991007091579704113
991000051669704113
991002211979704113
991004506529704113
991004955219704113
991009131229704113
991003328659704113
991000996769704113
991000489569704113
991006690439704113
991003837399704113
991002779929704113
991000420859704113
991001859369704113
991006033739704113
991002888599704113
991004175809704113
991002864259704113
991001365539704113
991004623379704113
991006558529704113
991001891029704113
991008692349704113
991003253679704113
991002062939704113
991010157509704113
991000190299704113
991000649879704113
991007916629704113
991001326629704113
991001273659704113
991001109679704113
991001390059704113
991001459469704113
991000236169704113
991001583249704113
991000558479704113
991007220709704113
991002149329704113
991001126469704113
991006009709704113
991001292959704113
991000799589704113
991001523039704113
991005933399704113
991001339119704113
991001288369704113
991001983429704113
991002116599704113
991008666939704113
991006473799704113
991006020819704113
991002745389704113
991008909919704113
991000085819704113
991001356579704113
991002083989704113
991007672689704113
991003231019704113
991000144209704113
991003659369704113
991006579689704113
991009914559704113
991002315029704113
991002325419704113
991006575229704113
991002017179704113
991006470909704113
991002664589704113
991001787819704113
991008497809704113
991003777139704113
991003291479704113
991004714079704113
991004133959704113
991006220989704113
991006671449704113
991005538419704113
991008172999704113
991000159829704113
991003053449704113
991007539819704113
991002204569704113
991003092179704113
991000022999704113
991000608799704113
991001417819704113
991003651289704113
991003651339704113
991001938919704113
991009104649704113
991006369539704113
991000416099704113
991008900689704113
991000084669704113
991001259289704113
991001807219704113
991001841089704113
991002260779704113
991000722299704113
991002069399704113
991002108629704113
991002341849704113
991006061299704113
991002198589704113
991000056619704113
991002166999704113
991000192129704113
991010565889704113
991002013769704113
991000564269704113
991000992019704113
991001339349704113
991010670999704113
991002252269704113
991001711449704113
991007069179704113
991005765099704113
991005031559704113
991000130429704113
991002139239704113
991001208839704113
991008560469704113
991001514209704113
991005564539704113
991004355049704113
991001780859704113
991004849139704113
991006635889704113
991004442479704113
991000876379704113
991004032789704113
991002981749704113
991001066059704113
991005370489704113
991000467709704113
991002052459704113
991001662509704113
991002154529704113
991000491349704113
991000236129704113
991003661559704113
991001647669704113
991008900669704113
991001977589704113
991002259419704113
991002663449704113
991010199209704113
991001860849704113
991004340599704113
991002738599704113
991007325119704113
991005592629704113
991010766039704113
991004424629704113
991000120599704113
991002006469704113
991000705379704113
991002186729704113
991002338569704113
991001122509704113
991001067289704113
991004881109704113
991007776479704113
991006862529704113
991001514759704113
991004139919704113
991006232279704113
991008192789704113
991001566159704113
991002836749704113
991008604669704113
991002879519704113
991010197659704113
991003941749704113
991010001189704113
991009901759704113
991006450819704113
991002184459704113
991002741099704113
991005942579704113
991002228009704113
991002153909704113
991004199649704113
991002741169704113
991006854459704113
991001551739704113
991003289429704113
991004298119704113
991002851499704113
991000056679704113
991010595139704113
991001174479704113
991001887689704113
991003080749704113
991000568789704113
991003903299704113
991000669029704113
991009288269704113
991008504239704113
991000754739704113
991000768689704113
991001555449704113
991001278799704113
991000590329704113
991004350139704113
991001815399704113
991001563869704113
991003739659704113
991001740669704113
991008306719704113
991004195239704113
991002161249704113
991009155199704113
991004067539704113
991010412969704113
991010398849704113
991006040439704113
991010324179704113
991000058739704113
991003157929704113
991002285189704113
991010175389704113
991001314159704113
991004730569704113
991002318769704113
991000195729704113
991002194139704113
991000061789704113
991002290669704113
991007330289704113
991002008529704113
991003750649704113
991006054829704113
991004487379704113
991002192839704113
991000210499704113
991003110539704113
991006220779704113
991008742679704113
991000186829704113
991000373789704113
991003237149704113
991003151209704113
991002213769704113
991007915089704113
991004118289704113
991002844079704113
991001847779704113
991001859899704113
991001536259704113
991004771619704113
991004354659704113
991000769539704113
991000607489704113
991010274759704113
991000918089704113
991005986029704113
991002282899704113
991004163909704113
991000304609704113
991002924129704113
991008909839704113
991002250999704113
991003648909704113
991000565349704113
991001497069704113
991002651359704113
991006449429704113
991008910369704113
991001757289704113
991000011179704113
991001682729704113
991000039329704113
991000596629704113
991009933419704113
991006045219704113
991002100409704113
991005606999704113
991000397689704113
991001025989704113
991004690359704113
991005909909704113
991000034479704113
991010469239704113
991001825389704113
991002820049704113
991006187429704113
991001462769704113
991002245669704113
991000056709704113
991002263639704113
991003235219704113
991001885689704113
991002249639704113
991001846819704113
991001839279704113
991001842199704113
991002250389704113
991001266569704113
991001275709704113
991002700499704113
991000944309704113
991000489729704113
991009117009704113
991000151349704113
991000600789704113
991002077469704113
991001106029704113
991000337949704113
991001262849704113
991002254879704113
991001523319704113
991004399789704113
991007317329704113
991007305459704113
991010558059704113
991001932569704113
991006716839704113
991000704149704113
991007644059704113
991006136449704113
991002857559704113
991006671499704113
991002188679704113
991001810329704113
991006891719704113
991002612419704113
991001098619704113
991001072619704113
991002099159704113
991002080569704113
991006010759704113
991001960129704113
991002164869704113
991006440769704113
991000831939704113
991002674889704113
991002674159704113
991002674309704113
991007401859704113
991002674849704113
991008632289704113
991002675329704113
991001766139704113
991007058659704113
991000367789704113
991004185339704113
991005310709704113
991002675459704113
991004780279704113
991008064669704113
991009223079704113
991007367219704113
991006592759704113
991009108089704113
991003086169704113
991001869319704113
991005432629704113
991005655819704113
991003651789704113
991008473779704113
991000056789704113
991006291399704113
991010554549704113
991002047409704113
991008714789704113
991010428249704113
991004133869704113
991009083489704113
991001725199704113
991001506259704113
991003662729704113
991000883829704113
991007189709704113
991007411079704113
991000852099704113
991000033269704113
991004693539704113
991003920219704113
991000459149704113
991001544319704113
991004721709704113
991003999109704113
991003044779704113
991006909349704113
991000282819704113
